Regression
…
---

## Coding Tips for Regression

- The `broom` package is part of the `tidyverse`, but it does not load automatically; you'll need to load it separately

`augment` adds columns to a dataset, including things like fitted values and residuals. If it has a `.` in front of the column name, it was added. Also stored as a data.frame so we can use them later. 

```r
augment(fit.1)
```

```
## # A tibble: 928 x 8
##    child parent .fitted .resid .std.resid    .hat .sigma .cooksd
##    <dbl>  <dbl>   <dbl>  <dbl>      <dbl>   <dbl>  <dbl>   <dbl>
##  1  61.7   70.5    69.5  -7.81      -3.49 0.00270   2.22 0.0165 
##  2  61.7   68.5    68.2  -6.51      -2.91 0.00109   2.23 0.00462
##  3  61.7   65.5    66.3  -4.57      -2.05 0.00374   2.23 0.00787
##  4  61.7   64.5    65.6  -3.93      -1.76 0.00597   2.24 0.00931
##  5  61.7   64      65.3  -3.60      -1.62 0.00735   2.24 0.00966
##  6  62.2   67.5    67.6  -5.37      -2.40 0.00130   2.23 0.00374
##  7  62.2   67.5    67.6  -5.37      -2.40 0.00130   2.23 0.00374
##  8  62.2   67.5    67.6  -5.37      -2.40 0.00130   2.23 0.00374
##  9  62.2   66.5    66.9  -4.72      -2.11 0.00218   2.23 0.00487
## 10  62.2   66.5    66.9  -4.72      -2.11 0.00218   2.23 0.00487
## # … with 918 more rows
```
…
