…
To look at all of these different constructs, we need to create composite scores for each, and we can do this using pivot_longer().

First, let’s use pivot_longer() to make a data frame with only our Neuroticism items using select().

#remember to also include our grouping variable "id"
(neuro_long <- china_sum_2 |>
  dplyr::select(id, starts_with("N_")) |>
  pivot_longer(
    cols = -id,
    names_to = "item",
    values_to = "score"
  ))

## # A tibble: 2,016 × 3
##       id item   score
##    <dbl> <chr>  <dbl>
##  1     1 N_1_a      1
##  2     1 N_2_d      1
##  3     1 N_3_e      1
##  4     1 N_4_a      2
##  5     1 N_5_d      1
##  6     1 N_6_e      1
##  7     1 N_7_a      2
##  8     1 N_8_d      1
##  9     1 N_9_e      1
## 10     1 N_10_a     2
## # ℹ 2,006 more rows

Now we have a data frame with 2,016 observations!

To get facet scores, R needs to know which items belong to which facet of Neuroticism. We, therefore, need to separate the ending letter from each item into another column using another tidyr function, separate():

(facet_long_1 <- neuro_long |>
  separate(col = item,
           into = c("item", "facet")))

## Warning: Expected 2 pieces. Additional pieces discarded in 2016 rows [1, 2, 3, 4, 5, 6,
## 7, 8, 9, 10, 11, 12, 13, 14, 15, 16, 17, 18, 19, 20, ...].

## # A tibble: 2,016 × 4
##       id item  facet score
##    <dbl> <chr> <chr> <dbl>
##  1     1 N     1         1
##  2     1 N     2         1
##  3     1 N     3         1
##  4     1 N     4         2
##  5     1 N     5         1
##  6     1 N     6         1
##  7     1 N     7         2
##  8     1 N     8         1
##  9     1 N     9         1
## 10     1 N     10        2
## # ℹ 2,006 more rows

When we do separate() here, however, we lose the item number information, and R gives us a warning telling us that this happened. This is because there are two underscores in the item names that it is picking up on.

To prevent this, we will need to use separate() to split them into three columns first, and then we can use unite() to join the trait and item number values back together:

(facet_long_2 <- neuro_long |>
  separate(col = item,
           into = c("trait", "item_number", "facet")) |>
  unite(col = "item",
        trait, item_number,
        sep = "_"))

## # A tibble: 2,016 × 4
##       id item  facet score
##    <dbl> <chr> <chr> <dbl>
##  1     1 N_1   a         1
##  2     1 N_2   d         1
##  3     1 N_3   e         1
##  4     1 N_4   a         2
##  5     1 N_5   d         1
##  6     1 N_6   e         1
##  7     1 N_7   a         2
##  8     1 N_8   d         1
##  9     1 N_9   e         1
## 10     1 N_10  a         2
## # ℹ 2,006 more rows
…
What operation within mutate() will we use to make the composites?

Hint: Remember when we used group_by(id) to get the correct column of personality score sums, per person.

{{% learnr url="https://shelly-cooper.shinyapps.io/10-learnr-app3/" id="learnr-10-app3" %}}
Here, we create the facet composite scores:

(facet_long_3 <- facet_long_2 |>
  group_by(id, facet) |>
  mutate(
    facet_comp = mean(score, na.rm = TRUE)
  ) |> ungroup())

## # A tibble: 2,016 × 5
##       id item  facet score facet_comp
##    <dbl> <chr> <chr> <dbl>      <dbl>
##  1     1 N_1   a         1       1.75
##  2     1 N_2   d         1       1   
##  3     1 N_3   e         1       1   
##  4     1 N_4   a         2       1.75
##  5     1 N_5   d         1       1   
##  6     1 N_6   e         1       1   
##  7     1 N_7   a         2       1.75
##  8     1 N_8   d         1       1   
##  9     1 N_9   e         1       1   
## 10     1 N_10  a         2       1.75
## # ℹ 2,006 more rows

By using group_by(id, facet), we group by both of these variables to get a composite score of each facet that within each participant’s own data.

We are not done, however, as there is some unnecessary repetition going on in the facet_comp variable; Even though the calculations were done correctly, the facet names are repeating within each person.

We can take the mean of facet_comp, grouping by id and facet, again, which will give us a single score for each facet within each participant:

(facet_long_4 <- facet_long_3 |>
  group_by(id, facet) |>
  summarise(
    facet_comp = mean(facet_comp, na.rm = TRUE)
  ) |> ungroup())

## # A tibble: 504 × 3
##       id facet facet_comp
##    <dbl> <chr>      <dbl>
##  1     1 a           1.75
##  2     1 d           1   
##  3     1 e           1   
##  4     2 a           2.5 
##  5     2 d           3   
##  6     2 e           2.75
##  7     3 a           3   
##  8     3 d           2   
##  9     3 e           3.25
## 10     4 a           3.25
## # ℹ 494 more rows
…
    names_from = facet,
    values_from = facet_comp
  ) |> #can use pipe here to go into the next operation
  group_by(id) |>
  mutate(
    Neuro_comp = rowMeans(across(c(a:e)), na.rm = TRUE)
  ) |> ungroup() |>
   #we can change the names to be more informative
   rename(
     Anxiety = a,
     Depression = d,
     Volatility = e
   ))

## # A tibble: 168 × 5
##       id Anxiety Depression Volatility Neuro_comp
##    <dbl>   <dbl>      <dbl>      <dbl>      <dbl>
##  1     1    1.75       1          1          1.25
##  2     2    2.5        3          2.75       2.75
##  3     3    3          2          3.25       2.75
##  4     4    3.25       2.5        2.75       2.83
##  5     5    3.75       2.25       2          2.67
##  6     6    3          3.25       2.75       3   
##  7     7    2.75       2          1.75       2.17
##  8     8    3.75       3          2          2.92
##  9     9    4          4.25       3.5        3.92
## 10    10    3.5        3.25       3.75       3.5 
## # ℹ 158 more rows
Now we have what we want: One row for each participant, and each of their composite scores as columns.

Correlations

Now, we need the outcome variable “number_of_friends” to look at the relationships between Neuroticism and online friends.

To get a complete and clean data frame, we can bring in the outcome variable from our previous data frame and remove the rows with NA values that will be dropped from the cor.test() operation using na.omit():

(Neuro_friends <- composite_final |>
  mutate(
    number_of_friends = china_sum_2$number_of_friends
  ) |>
  na.omit())

## # A tibble: 119 × 6
##       id Anxiety Depression Volatility Neuro_comp number_of_friends
##    <dbl>   <dbl>      <dbl>      <dbl>      <dbl>             <dbl>
##  1     1    1.75       1          1          1.25                26
##  2     2    2.5        3          2.75       2.75                 4
##  3     4    3.25       2.5        2.75       2.83                 3
##  4     5    3.75       2.25       2          2.67                14
##  5     6    3          3.25       2.75       3                    2
##  6     7    2.75       2          1.75       2.17                 1
##  7     8    3.75       3          2          2.92                 8
##  8     9    4          4.25       3.5        3.92               119
##  9    12    2.25       2.75       1.5        2.17                 6
## 10    14    2.25       2.5        3          2.58                 2
## # ℹ 109 more rows
…
